%YAML 1.1
%TAG !u! tag:unity3d.com,2011:
--- !u!1 &2146217566003727517
GameObject:
  m_ObjectHideFlags: 0
  m_CorrespondingSourceObject: {fileID: 0}
  m_PrefabInstance: {fileID: 0}
  m_PrefabAsset: {fileID: 0}
  serializedVersion: 6
  m_Component:
  - component: {fileID: 6993164043168737748}
  m_Layer: 0
  m_Name: Mesa Docente Completa
  m_TagString: Untagged
  m_Icon: {fileID: 0}
  m_NavMeshLayer: 0
  m_StaticEditorFlags: 0
  m_IsActive: 1
--- !u!4 &6993164043168737748
Transform:
  m_ObjectHideFlags: 0
  m_CorrespondingSourceObject: {fileID: 0}
  m_PrefabInstance: {fileID: 0}
  m_PrefabAsset: {fileID: 0}
  m_GameObject: {fileID: 2146217566003727517}
  m_LocalRotation: {x: 0, y: 0, z: 0, w: 1}
  m_LocalPosition: {x: 0, y: 0, z: 0}
  m_LocalScale: {x: 1, y: 1, z: 1}
  m_Children:
  - {fileID: 7690305344157860735}
  - {fileID: 7690305345423659774}
  m_Father: {fileID: 0}
  m_RootOrder: 0
  m_LocalEulerAnglesHint: {x: 0, y: 0, z: 0}
--- !u!1001 &7690305344158259669
PrefabInstance:
  m_ObjectHideFlags: 0
  serializedVersion: 2
  m_Modification:
    m_TransformParent: {fileID: 6993164043168737748}
    m_Modifications:
    - target: {fileID: 100042, guid: ee64e80f93d91104fa553f3d6ae71ac0, type: 3}
      propertyPath: m_Name
      value: Silla
      objectReference: {fileID: 0}
    - target: {fileID: 100042, guid: ee64e80f93d91104fa553f3d6ae71ac0, type: 3}
      propertyPath: m_StaticEditorFlags
      value: 4294967295
      objectReference: {fileID: 0}
    - target: {fileID: 100000, guid: ee64e80f93d91104fa553f3d6ae71ac0, type: 3}
      propertyPath: m_StaticEditorFlags
      value: 4294967295
      objectReference: {fileID: 0}
    - target: {fileID: 100002, guid: ee64e80f93d91104fa553f3d6ae71ac0, type: 3}
      propertyPath: m_StaticEditorFlags
      value: 4294967295
      objectReference: {fileID: 0}
    - target: {fileID: 100004, guid: ee64e80f93d91104fa553f3d6ae71ac0, type: 3}
      propertyPath: m_StaticEditorFlags
      value: 4294967295
      objectReference: {fileID: 0}
    - target: {fileID: 100006, guid: ee64e80f93d91104fa553f3d6ae71ac0, type: 3}
      propertyPath: m_StaticEditorFlags
      value: 4294967295
      objectReference: {fileID: 0}
    - target: {fileID: 100008, guid: ee64e80f93d91104fa553f3d6ae71ac0, type: 3}
      propertyPath: m_StaticEditorFlags
      value: 4294967295
      objectReference: {fileID: 0}
    - target: {fileID: 100010, guid: ee64e80f93d91104fa553f3d6ae71ac0, type: 3}
      propertyPath: m_StaticEditorFlags
      value: 4294967295
      objectReference: {fileID: 0}
    - target: {fileID: 100012, guid: ee64e80f93d91104fa553f3d6ae71ac0, type: 3}
      propertyPath: m_StaticEditorFlags
      value: 4294967295
      objectReference: {fileID: 0}
    - target: {fileID: 100014, guid: ee64e80f93d91104fa553f3d6ae71ac0, type: 3}
      propertyPath: m_StaticEditorFlags
      value: 4294967295
      objectReference: {fileID: 0}
    - target: {fileID: 100016, guid: ee64e80f93d91104fa553f3d6ae71ac0, type: 3}
      propertyPath: m_StaticEditorFlags
      value: 4294967295
      objectReference: {fileID: 0}
    - target: {fileID: 100018, guid: ee64e80f93d91104fa553f3d6ae71ac0, type: 3}
      propertyPath: m_StaticEditorFlags
      value: 4294967295
      objectReference: {fileID: 0}
    - target: {fileID: 100020, guid: ee64e80f93d91104fa553f3d6ae71ac0, type: 3}
      propertyPath: m_StaticEditorFlags
      value: 4294967295
      objectReference: {fileID: 0}
    - target: {fileID: 100040, guid: ee64e80f93d91104fa553f3d6ae71ac0, type: 3}
      propertyPath: m_StaticEditorFlags
      value: 4294967295
      objectReference: {fileID: 0}
    - target: {fileID: 100022, guid: ee64e80f93d91104fa553f3d6ae71ac0, type: 3}
      propertyPath: m_StaticEditorFlags
      value: 4294967295
      objectReference: {fileID: 0}
    - target: {fileID: 100024, guid: ee64e80f93d91104fa553f3d6ae71ac0, type: 3}
      propertyPath: m_StaticEditorFlags
      value: 4294967295
      objectReference: {fileID: 0}
    - target: {fileID: 100026, guid: ee64e80f93d91104fa553f3d6ae71ac0, type: 3}
      propertyPath: m_StaticEditorFlags
      value: 4294967295
      objectReference: {fileID: 0}
    - target: {fileID: 100028, guid: ee64e80f93d91104fa553f3d6ae71ac0, type: 3}
      propertyPath: m_StaticEditorFlags
      value: 4294967295
      objectReference: {fileID: 0}
    - target: {fileID: 100030, guid: ee64e80f93d91104fa553f3d6ae71ac0, type: 3}
      propertyPath: m_StaticEditorFlags
      value: 4294967295
      objectReference: {fileID: 0}
    - target: {fileID: 100032, guid: ee64e80f93d91104fa553f3d6ae71ac0, type: 3}
      propertyPath: m_StaticEditorFlags
      value: 4294967295
      objectReference: {fileID: 0}
    - target: {fileID: 100034, guid: ee64e80f93d91104fa553f3d6ae71ac0, type: 3}
      propertyPath: m_StaticEditorFlags
      value: 4294967295
      objectReference: {fileID: 0}
    - target: {fileID: 100036, guid: ee64e80f93d91104fa553f3d6ae71ac0, type: 3}
      propertyPath: m_StaticEditorFlags
      value: 4294967295
      objectReference: {fileID: 0}
    - target: {fileID: 100038, guid: ee64e80f93d91104fa553f3d6ae71ac0, type: 3}
      propertyPath: m_StaticEditorFlags
      value: 4294967295
      objectReference: {fileID: 0}
    - target: {fileID: 100044, guid: ee64e80f93d91104fa553f3d6ae71ac0, type: 3}
      propertyPath: m_StaticEditorFlags
      value: 4294967295
      objectReference: {fileID: 0}
    - target: {fileID: 100046, guid: ee64e80f93d91104fa553f3d6ae71ac0, type: 3}
      propertyPath: m_StaticEditorFlags
      value: 4294967295
      objectReference: {fileID: 0}
    - target: {fileID: 100048, guid: ee64e80f93d91104fa553f3d6ae71ac0, type: 3}
      propertyPath: m_StaticEditorFlags
      value: 4294967295
      objectReference: {fileID: 0}
    - target: {fileID: 100050, guid: ee64e80f93d91104fa553f3d6ae71ac0, type: 3}
      propertyPath: m_StaticEditorFlags
      value: 4294967295
      objectReference: {fileID: 0}
    - target: {fileID: 100052, guid: ee64e80f93d91104fa553f3d6ae71ac0, type: 3}
      propertyPath: m_StaticEditorFlags
      value: 4294967295
      objectReference: {fileID: 0}
    - target: {fileID: 100054, guid: ee64e80f93d91104fa553f3d6ae71ac0, type: 3}
      propertyPath: m_StaticEditorFlags
      value: 4294967295
      objectReference: {fileID: 0}
    - target: {fileID: 400042, guid: ee64e80f93d91104fa553f3d6ae71ac0, type: 3}
      propertyPath: m_LocalPosition.x
      value: 2.8242555
      objectReference: {fileID: 0}
    - target: {fileID: 400042, guid: ee64e80f93d91104fa553f3d6ae71ac0, type: 3}
      propertyPath: m_LocalPosition.y
      value: -1.6595303
      objectReference: {fileID: 0}
    - target: {fileID: 400042, guid: ee64e80f93d91104fa553f3d6ae71ac0, type: 3}
      propertyPath: m_LocalPosition.z
      value: 0.55185544
      objectReference: {fileID: 0}
    - target: {fileID: 400042, guid: ee64e80f93d91104fa553f3d6ae71ac0, type: 3}
      propertyPath: m_LocalRotation.x
      value: -0
      objectReference: {fileID: 0}
    - target: {fileID: 400042, guid: ee64e80f93d91104fa553f3d6ae71ac0, type: 3}
      propertyPath: m_LocalRotation.y
      value: -0
      objectReference: {fileID: 0}
    - target: {fileID: 400042, guid: ee64e80f93d91104fa553f3d6ae71ac0, type: 3}
      propertyPath: m_LocalRotation.z
      value: -0
      objectReference: {fileID: 0}
    - target: {fileID: 400042, guid: ee64e80f93d91104fa553f3d6ae71ac0, type: 3}
      propertyPath: m_LocalRotation.w
      value: 1
      objectReference: {fileID: 0}
    - target: {fileID: 400042, guid: ee64e80f93d91104fa553f3d6ae71ac0, type: 3}
      propertyPath: m_RootOrder
      value: 0
      objectReference: {fileID: 0}
    - target: {fileID: 400042, guid: ee64e80f93d91104fa553f3d6ae71ac0, type: 3}
      propertyPath: m_LocalEulerAnglesHint.x
      value: 0
      objectReference: {fileID: 0}
    - target: {fileID: 400042, guid: ee64e80f93d91104fa553f3d6ae71ac0, type: 3}
      propertyPath: m_LocalEulerAnglesHint.y
      value: 0
      objectReference: {fileID: 0}
    - target: {fileID: 400042, guid: ee64e80f93d91104fa553f3d6ae71ac0, type: 3}
      propertyPath: m_LocalEulerAnglesHint.z
      value: 0
      objectReference: {fileID: 0}
    m_RemovedComponents: []
  m_SourcePrefab: {fileID: 100100000, guid: ee64e80f93d91104fa553f3d6ae71ac0, type: 3}
--- !u!4 &7690305344157860735 stripped
Transform:
  m_CorrespondingSourceObject: {fileID: 400042, guid: ee64e80f93d91104fa553f3d6ae71ac0,
    type: 3}
  m_PrefabInstance: {fileID: 7690305344158259669}
  m_PrefabAsset: {fileID: 0}
--- !u!1001 &7690305345423788156
PrefabInstance:
  m_ObjectHideFlags: 0
  serializedVersion: 2
  m_Modification:
    m_TransformParent: {fileID: 6993164043168737748}
    m_Modifications:
    - target: {fileID: 100002, guid: d0b3f2a95043b4845837d9fc18bfdabb, type: 3}
      propertyPath: m_Name
      value: Mesa_Profesor
      objectReference: {fileID: 0}
    - target: {fileID: 100002, guid: d0b3f2a95043b4845837d9fc18bfdabb, type: 3}
      propertyPath: m_StaticEditorFlags
      value: 4294967295
      objectReference: {fileID: 0}
    - target: {fileID: 100000, guid: d0b3f2a95043b4845837d9fc18bfdabb, type: 3}
      propertyPath: m_StaticEditorFlags
      value: 4294967295
      objectReference: {fileID: 0}
    - target: {fileID: 100004, guid: d0b3f2a95043b4845837d9fc18bfdabb, type: 3}
      propertyPath: m_StaticEditorFlags
      value: 4294967295
      objectReference: {fileID: 0}
    - target: {fileID: 100006, guid: d0b3f2a95043b4845837d9fc18bfdabb, type: 3}
      propertyPath: m_StaticEditorFlags
      value: 4294967295
      objectReference: {fileID: 0}
    - target: {fileID: 100008, guid: d0b3f2a95043b4845837d9fc18bfdabb, type: 3}
      propertyPath: m_StaticEditorFlags
      value: 4294967295
      objectReference: {fileID: 0}
    - target: {fileID: 100010, guid: d0b3f2a95043b4845837d9fc18bfdabb, type: 3}
      propertyPath: m_StaticEditorFlags
      value: 4294967295
      objectReference: {fileID: 0}
    - target: {fileID: 400002, guid: d0b3f2a95043b4845837d9fc18bfdabb, type: 3}
      propertyPath: m_LocalPosition.x
      value: 2.8382554
      objectReference: {fileID: 0}
    - target: {fileID: 400002, guid: d0b3f2a95043b4845837d9fc18bfdabb, type: 3}
      propertyPath: m_LocalPosition.y
      value: -1.6595303
      objectReference: {fileID: 0}
    - target: {fileID: 400002, guid: d0b3f2a95043b4845837d9fc18bfdabb, type: 3}
      propertyPath: m_LocalPosition.z
      value: 1.5338554
      objectReference: {fileID: 0}
    - target: {fileID: 400002, guid: d0b3f2a95043b4845837d9fc18bfdabb, type: 3}
      propertyPath: m_LocalRotation.x
      value: -0
      objectReference: {fileID: 0}
    - target: {fileID: 400002, guid: d0b3f2a95043b4845837d9fc18bfdabb, type: 3}
      propertyPath: m_LocalRotation.y
      value: -0
      objectReference: {fileID: 0}
    - target: {fileID: 400002, guid: d0b3f2a95043b4845837d9fc18bfdabb, type: 3}
      propertyPath: m_LocalRotation.z
      value: -0
      objectReference: {fileID: 0}
    - target: {fileID: 400002, guid: d0b3f2a95043b4845837d9fc18bfdabb, type: 3}
      propertyPath: m_LocalRotation.w
      value: 1
      objectReference: {fileID: 0}
    - target: {fileID: 400002, guid: d0b3f2a95043b4845837d9fc18bfdabb, type: 3}
      propertyPath: m_RootOrder
      value: 1
      objectReference: {fileID: 0}
    - target: {fileID: 400002, guid: d0b3f2a95043b4845837d9fc18bfdabb, type: 3}
      propertyPath: m_LocalEulerAnglesHint.x
      value: 0
      objectReference: {fileID: 0}
    - target: {fileID: 400002, guid: d0b3f2a95043b4845837d9fc18bfdabb, type: 3}
      propertyPath: m_LocalEulerAnglesHint.y
      value: 0
      objectReference: {fileID: 0}
    - target: {fileID: 400002, guid: d0b3f2a95043b4845837d9fc18bfdabb, type: 3}
      propertyPath: m_LocalEulerAnglesHint.z
      value: 0
      objectReference: {fileID: 0}
    m_RemovedComponents: []
  m_SourcePrefab: {fileID: 100100000, guid: d0b3f2a95043b4845837d9fc18bfdabb, type: 3}
--- !u!4 &7690305345423659774 stripped
Transform:
  m_CorrespondingSourceObject: {fileID: 400002, guid: d0b3f2a95043b4845837d9fc18bfdabb,
    type: 3}
  m_PrefabInstance: {fileID: 7690305345423788156}
  m_PrefabAsset: {fileID: 0}
